…
``` r
count(iowa, location)
```

    ## # A tibble: 227,904 x 2
    ##    location                                 n
    ##    <chr>                                <int>
    ##  1 <NA>                                262169
    ##  2 -1 M E OF HWY 59 ON A22 EB               1
    ##  3 -1 M E OF HWY 86 ON HWY 9 WB (TO SB      2
    ##  4 -1 M N OF A34 ON M56                     1
    ##  5 -1 M W OF HWY 86 ON HWY 9 EB             1
    ##  6 -1 M W OF LITTLE ROCK ON HWY 9 EB        1
    ##  7 -1 M W OF M18 ON HWY 9 EB                1
    ##  8 -1 M W OF M44 ON HWY 18 EB               1
    ##  9 -1 M W OF MILFORD ON A34 EB              2
    ## 10 -1 M WEST OF HWY 71 ON HWY 18 EB         2
    ## # … with 227,894 more rows
…
