…
Now, we’ll split category up and only keep the first 2 categories for
simplicity.

``` r
bgdat2 <- bgdat %>% separate(category, into = c("firstcat", "secondcat"), sep = ",")
bgdat2 %>% count(firstcat)
```

    ## # A tibble: 84 x 2
    ##    firstcat                       n
    ##    <chr>                      <int>
    ##  1 <NA>                          94
    ##  2 Abstract Strategy            710
    ##  3 Action / Dexterity           492
    ##  4 Adventure                    527
    ##  5 Age of Reason                 81
    ##  6 American Civil War           130
    ##  7 American Indian Wars           6
    ##  8 American Revolutionary War     7
    ##  9 American West                107
    ## 10 Ancient                      374
    ## # … with 74 more rows

There are still a lot of categories, but there are many different
categories of war games. Let’s make all of them just
“War”.

``` r
bgdat2 <- bgdat2 %>% mutate(firstcat = ifelse(str_detect(firstcat, "War"), "War", firstcat), secondcat = ifelse(str_detect(secondcat, "War"), "War", secondcat))
bgdat2 %>% count(firstcat)
```

    ## # A tibble: 75 x 2
    ##    firstcat               n
    ##    <chr>              <int>
    ##  1 <NA>                  94
    ##  2 Abstract Strategy    710
    ##  3 Action / Dexterity   492
    ##  4 Adventure            527
    ##  5 Age of Reason         81
    ##  6 American West        107
    ##  7 Ancient              374
    ##  8 Animals              436
    ##  9 Arabian               44
    ## 10 Aviation / Flight    159
    ## # … with 65 more rows
…
