…
``` r
# check for missings 
pets %>% filter(is.na(date))
```

    ## # A tibble: 0 x 9
    ## # … with 9 variables: license_issue_date <chr>, license_number <chr>,
    ## #   animals_name <chr>, species <chr>, primary_breed <chr>,
    ## #   secondary_breed <chr>, zip_code <chr>, date <date>, zip <int>

``` r
pets %>% filter(is.na(zip))
```

    ## # A tibble: 468 x 9
    ##    license_issue_d… license_number animals_name species primary_breed
    ##    <chr>            <chr>          <chr>        <chr>   <chr>        
    ##  1 October 22 2018  S152153        Lola         Cat     Domestic Sho…
    ##  2 September 28 20… S142612        Flynn        Cat     Domestic Sho…
    ##  3 December 20 2016 S125486        Kola         Dog     Chihuahua, S…
    ##  4 December 01 2016 S121008        Neil         Dog     Terrier, Bor…
    ##  5 November 25 2018 S123160        Fozzie       Dog     Poodle, Stan…
    ##  6 April 21 2017    960061         Gwennie      Dog     Maltese      
    ##  7 February 23 2017 962460         Pepper       Cat     Domestic Sho…
    ##  8 December 29 2017 S139164        Maximilian   Dog     Maltese      
    ##  9 December 16 2017 962020         Precious     Dog     Terrier, Yor…
    ## 10 December 13 2016 952188         Danny        Cat     Domestic Sho…
    ## # … with 458 more rows, and 4 more variables: secondary_breed <chr>,
    ## #   zip_code <chr>, date <date>, zip <int>

``` r
pets %>% filter(is.na(zip), !is.na(zip_code))
```

    ## # A tibble: 71 x 9
    ##    license_issue_d… license_number animals_name species primary_breed
    ##    <chr>            <chr>          <chr>        <chr>   <chr>        
    ##  1 November 25 2018 S123160        Fozzie       Dog     Poodle, Stan…
    ##  2 November 27 2018 892002         Jellie       Cat     Russian Blue 
    ##  3 November 03 2018 832528         Oliver       Cat     Domestic Sho…
    ##  4 October 20 2018  830690         Stella       Dog     Shepherd     
    ##  5 October 18 2018  S121923        Bernie       Dog     Terrier      
    ##  6 October 18 2018  8002006        Tulip        Dog     Schnauzer, M…
    ##  7 November 13 2018 904676         Gigi         Dog     Bulldog, Fre…
    ##  8 July 24 2018     433254         Sam          Cat     Domestic Sho…
    ##  9 November 17 2015 283053         Cooper       Dog     Retriever, G…
    ## 10 October 17 2017  S137360        Finnegan     Dog     Irish Wolfho…
    ## # … with 61 more rows, and 4 more variables: secondary_breed <chr>,
    ## #   zip_code <chr>, date <date>, zip <int>
…
``` r
pets %>% filter(first_letter %in% LETTERS, species %in% c("Goat", "Pig")) %>% 
  ggplot() + 
  geom_bar(aes(x = first_letter, fill = species), position = "dodge")
```

<img src="r-ladies-ames-soln_files/figure-gfm/lets2-2.png" style="display: block; margin: auto;" />

``` r
filter(pets, species == "Goat") %>% 
  select(animals_name) %>% count(animals_name) %>% arrange(desc(n))
```

    ## # A tibble: 37 x 2
    ##    animals_name        n
    ##    <chr>           <int>
    ##  1 Heidi               2
    ##  2 Abelard             1
    ##  3 Aggie               1
    ##  4 Arya                1
    ##  5 Beans               1
    ##  6 Brussels Sprout     1
    ##  7 Darcy               1
    ##  8 Fawn                1
    ##  9 Fiona               1
    ## 10 Gavin               1
    ## # … with 27 more rows
…
