…
``` r
phd_field %>% group_by(major_field) %>% 
  summarize(total = sum(n_phds, na.rm = T)) %>% 
  arrange(desc(total))
```

    ## # A tibble: 25 x 2
    ##    major_field                                           total
    ##    <chr>                                                 <dbl>
    ##  1 Biological and biomedical sciences                    85637
    ##  2 Psychology                                            84730
    ##  3 Physics and astronomy                                 41176
    ##  4 Education research                                    25577
    ##  5 Chemistry                                             25015
    ##  6 Health sciences                                       20882
    ##  7 Other humanities and arts                             20535
    ##  8 Geosciences, atmospheric sciences, and ocean sciences 19868
    ##  9 Computer and information sciences                     18395
    ## 10 Other engineering                                     18139
    ## # … with 15 more rows

``` r
phd_field %>%group_by(field) %>% 
  summarize(total = sum(n_phds, na.rm = T)) %>% 
  arrange(desc(total))
```

    ## # A tibble: 336 x 2
    ##    field                              total
    ##    <chr>                              <dbl>
    ##  1 Social sciences                    48322
    ##  2 Physics                            17740
    ##  3 Computer science                   15219
    ##  4 Clinical psychology                11849
    ##  5 Other economics                    11083
    ##  6 Neurosciences, neurobiologye        9968
    ##  7 Educational leadership              8456
    ##  8 Biochemistry (biological sciences)  8375
    ##  9 Molecular biology                   6703
    ## 10 Organic chemistry                   6215
    ## # … with 326 more rows
…
